<?xml version="1.0" encoding="UTF-8" standalone="no"?>
<!-- Created with Inkscape (http://www.inkscape.org/) -->

<svg
   xmlns:dc="http://purl.org/dc/elements/1.1/"
   xmlns:cc="http://creativecommons.org/ns#"
   xmlns:rdf="http://www.w3.org/1999/02/22-rdf-syntax-ns#"
   xmlns:svg="http://www.w3.org/2000/svg"
   xmlns="http://www.w3.org/2000/svg"
   xmlns:xlink="http://www.w3.org/1999/xlink"
   xmlns:sodipodi="http://sodipodi.sourceforge.net/DTD/sodipodi-0.dtd"
   xmlns:inkscape="http://www.inkscape.org/namespaces/inkscape"
   width="1024"
   height="512"
   id="svg3500"
   version="1.1"
   inkscape:version="0.92.3 (2405546, 2018-03-11)"
   inkscape:export-filename="/home/elijah/dev/riseup/graphics/website-design/blue-crows/masthead2.png"
   inkscape:export-xdpi="90"
   inkscape:export-ydpi="90"
   sodipodi:docname="feature.svg">
  <defs
     id="defs3502">
    <clipPath
       clipPathUnits="userSpaceOnUse"
       id="clipPath12012">
      <rect
         style="display:inline;fill:#494949;fill-opacity:1;stroke:none"
         id="rect12014"
         width="1000"
         height="60"
         x="221.81274"
         y="192.86029" />
    </clipPath>
    <linearGradient
       gradientTransform="matrix(4.1168079,0,0,4.1168079,261.19751,519.92609)"
       inkscape:collect="always"
       xlink:href="#lightning"
       id="linearGradient992"
       x1="60.246956"
       y1="51.469265"
       x2="61.014767"
       y2="64"
       gradientUnits="userSpaceOnUse" />
    <linearGradient
       inkscape:collect="always"
       id="lightning">
      <stop
         style="stop-color:#ffd900;stop-opacity:1"
         offset="0"
         id="stop929" />
      <stop
         style="stop-color:#fb7300;stop-opacity:0.97969544"
         offset="1"
         id="stop931" />
    </linearGradient>
    <linearGradient
       inkscape:collect="always"
       xlink:href="#greenfield"
       id="linearGradient977"
       x1="307.3335"
       y1="183.89307"
       x2="299.66699"
       y2="601"
       gradientUnits="userSpaceOnUse" />
    <linearGradient
       inkscape:collect="always"
       id="greenfield">
      <stop
         style="stop-color:#9aca3c;stop-opacity:1;"
         offset="0"
         id="stop971" />
      <stop
         style="stop-color:#2e5c00;stop-opacity:1"
         offset="1"
         id="stop973" />
    </linearGradient>
  </defs>
  <sodipodi:namedview
     id="base"
     pagecolor="#cae39b"
     bordercolor="#666666"
     borderopacity="1.0"
     inkscape:pageopacity="1"
     inkscape:pageshadow="2"
     inkscape:zoom="0.70710678"
     inkscape:cx="460.36461"
     inkscape:cy="159.65488"
     inkscape:document-units="px"
     inkscape:current-layer="layer1"
     showgrid="false"
     showborder="true"
     borderlayer="false"
     inkscape:showpageshadow="false"
     inkscape:window-width="1867"
     inkscape:window-height="818"
     inkscape:window-x="53"
     inkscape:window-y="52"
     inkscape:window-maximized="0" />
  <metadata
     id="metadata3505">
    <rdf:RDF>
      <cc:Work
         rdf:about="">
        <dc:format>image/svg+xml</dc:format>
        <dc:type
           rdf:resource="http://purl.org/dc/dcmitype/StillImage" />
        <dc:title></dc:title>
      </cc:Work>
    </rdf:RDF>
  </metadata>
  <g
     inkscape:label="Layer 1"
     inkscape:groupmode="layer"
     id="layer1"
     transform="translate(0,-540.36218)">
    <g
       id="g986"
       transform="translate(-12.673227,1.3868668)">
      <polygon
         transform="matrix(0.80933262,0,0,0.80933262,275.9382,502.83335)"
         style="fill:url(#linearGradient977);fill-opacity:1"
         points="68.333,190.333 541.667,190.333 299.667,601 "
         id="polygon235" />
      <polygon
         transform="matrix(0.80933262,0,0,0.80933262,275.9382,502.83335)"
         points="434.333,287.667 416.333,257.667 533,241.667 561.667,314.333 479,307 499.667,342.333 416.333,342.333 416.333,375.667 353,440.333 350.5,514 299.667,601 234.5,485 233,429.667 195,348.333 115,347.667 121.667,327 53,329.667 171.667,277 167.667,305.667 181.667,296.333 179.667,268.333 209.667,247 220.333,245.667 238.333,224.333 273.667,217 295,206.333 336.333,206.333 345.667,221 355,215 374.333,214.333 401,230.333 401,277 409,278.333 411,287 "
         id="polygon237" />
      <path
         id="polygon239"
         d="m 699.75819,714.60611 -68.52233,3.77911 12.4067,24.82147 -32.91034,0.53872 2.70165,26.43761 50.71232,0.53872 -13.48415,-29.67798 62.0496,2.70165 z m -299.98826,28.60058 -39.92982,16.1858 26.97633,-0.53872 -3.24038,17.80198 h 58.81729 l 3.77107,-11.86797 -17.26325,-12.9535 -28.59251,10.25184 z"
         style="fill:url(#linearGradient992);fill-opacity:1;stroke-width:0.80933261"
         inkscape:connector-curvature="0" />
      <path
         style="fill:#c4a43f;stroke-width:0.80933261"
         inkscape:connector-curvature="0"
         d="m 534.65513,758.85196 4.85602,26.97748 c 0,0 6.47467,3.23733 20.50282,-2.6975 14.02814,-5.93483 19.42396,-7.55352 19.42396,-7.55352 0,0 0.53984,3.23734 -5.93483,7.55352 -6.47467,4.31615 -18.88495,6.47467 -18.88495,6.47467 0,0 5.39582,4.31697 13.48913,1.07963 8.09332,-3.23733 10.79086,-4.85598 10.79086,-4.85598 0,0 0,9.71196 -6.47467,11.33065 -6.47467,1.61865 -22.66134,-2.15848 -30.75466,-1.61869 -8.09331,0.53984 -11.86966,7.55352 -12.4095,12.94934 -0.53979,5.39582 3.23734,21.04265 3.23734,21.04265 0,0 -8.63316,-11.33065 -8.63316,-19.424 0,-8.09332 1.61869,-13.48913 1.61869,-13.48913 l -13.48917,-1.61865 -5.93483,-9.17217 -27.38213,1.48349 c 0,0 -0.13503,21.71765 10.11665,34.66616 10.25179,12.94852 21.58248,22.12146 21.58248,22.12146 l 8.09332,121.39989 32.3733,-48.02091 0.53901,-62.58734 -26.43764,-8.63315 c 0,0 21.58245,2.15852 32.3733,-2.6975 10.79081,-4.85598 37.76912,-29.13597 42.08526,-37.22928 4.31619,-8.09332 -1.07963,-66.90513 -1.07963,-66.90513 0,0 -17.80532,8.09336 -35.61064,13.48917 -17.80531,5.39582 -28.05633,5.93484 -28.05633,5.93484 z"
         id="path243" />
      <path
         style="fill:#c4a43f;stroke-width:0.80933261"
         inkscape:connector-curvature="0"
         d="m 558.39528,689.24933 c 0,0 8.63315,-5.39582 19.424,-2.15848 10.79082,3.23733 14.02815,5.39581 14.02815,5.39581 v 35.61064 c 0,0 -4.85598,3.23733 -12.94929,7.01451 -8.09336,3.77713 -13.48836,3.77713 -13.48836,3.77713 0,0 -1.61864,-24.81896 -3.77717,-35.0708 -2.15848,-10.2518 -3.23733,-14.56881 -3.23733,-14.56881 z"
         id="path245" />
      <path
         style="fill:#c4a43f;stroke-width:0.80933261"
         inkscape:connector-curvature="0"
         d="m 519.54735,676.83983 h 20.50282 c 0,0 8.63393,9.712 10.79163,21.04265 2.15766,11.33069 3.23734,45.86248 3.23734,45.86248 0,0 -7.01369,2.69832 -16.18668,3.77713 -9.17294,1.07885 -12.41028,0.53901 -12.41028,0.53901 0,0 -2.15848,-37.22928 -3.77717,-49.63878 -1.61865,-12.4095 -2.15766,-21.58249 -2.15766,-21.58249 z"
         id="path247" />
      <path
         style="fill:#c4a43f;stroke-width:0.80933261"
         inkscape:connector-curvature="0"
         d="m 479.08069,691.40786 17.80532,-5.39586 c 0,0 12.4095,8.09335 14.56798,23.20117 2.15849,15.10778 1.07885,38.30814 1.07885,38.30814 l -24.81978,4.31614 c 0,0 -2.15852,-35.61064 -4.85602,-45.86243 -2.6975,-10.2518 -3.77635,-14.56716 -3.77635,-14.56716 z"
         id="path249" />
      <path
         style="fill:#c4a43f;stroke-width:0.80933261"
         inkscape:connector-curvature="0"
         d="m 441.31157,720.54382 c 0,0 3.77717,-7.55352 11.33065,-8.09335 7.55352,-0.5398 11.87049,1.07885 11.87049,1.07885 l 9.712,37.76912 c 0,0 -1.07885,2.15852 -8.09331,4.85602 -7.01451,2.6975 -11.33069,2.15848 -11.33069,2.15848 0,0 -7.01447,-17.26548 -9.17217,-24.27998 -2.15766,-7.01447 -4.31697,-13.48914 -4.31697,-13.48914 z"
         id="path251" />
      <path
         style="fill:#796621;stroke-width:0.80933261"
         inkscape:connector-curvature="0"
         d="m 458.03804,707.05465 12.4095,-12.9493 c 0,0 6.47467,5.93483 7.55352,12.9493 1.07881,7.0145 0.5398,34.53182 0.5398,34.53182 0,0 -5.93484,-30.75465 -9.71197,-32.3733 -3.77717,-1.61868 -10.79085,-2.15852 -10.79085,-2.15852 z"
         id="path253" />
      <polygon
         transform="matrix(0.80933262,0,0,0.80933262,275.9382,502.83335)"
         style="fill:#796621"
         points="210.333,310.333 200.333,283.667 198.333,267 189,275.667 189.667,295 "
         id="polygon255" />
      <polygon
         transform="matrix(0.80933262,0,0,0.80933262,275.9382,502.83335)"
         style="fill:#796621"
         points="293.667,217.667 282.333,222.333 295,242.333 "
         id="polygon257" />
      <polygon
         transform="matrix(0.80933262,0,0,0.80933262,275.9382,502.83335)"
         style="fill:#796621"
         points="317,353 297,353 289,321 310.333,319 "
         id="polygon259" />
      <polygon
         transform="matrix(0.80933262,0,0,0.80933262,275.9382,502.83335)"
         style="fill:#796621"
         points="279,338.333 277.667,317 281.667,313 259.667,317 255,340.333 "
         id="polygon261" />
      <path
         style="fill:#796621;stroke-width:0.80933261"
         inkscape:connector-curvature="0"
         d="m 475.30356,759.93159 c 0,0 -3.77717,3.23733 -10.25184,3.77717 -6.47467,0.53984 -9.17216,0.53901 -9.17216,0.53901 l -1.61865,12.94934 17.26548,1.07881 z"
         id="path263" />
      <path
         style="fill:#796621;stroke-width:0.80933261"
         inkscape:connector-curvature="0"
         d="m 448.32608,786.90907 21.04261,-0.80932 -1.07881,8.90268 -5.93483,1.61865 7.55348,1.61868 c 0,0 0.67416,2.96781 2.22567,7.1488 0.23877,0.64424 -3.97947,3.37249 -3.97947,3.37249 0,0 5.21047,-0.26389 5.45489,0.30094 1.48592,3.42267 3.46392,7.23385 6.01009,10.75927 7.0145,9.71201 22.1215,26.43847 22.1215,26.43847 l -9.71118,2.15849 10.2518,3.23733 5.39582,98.19872 -32.37331,-53.95489 -1.07963,-41.00649 7.55348,-4.31615 -9.17217,-3.23733 z"
         id="path265" />
      <g
         style="fill:#66951f;fill-opacity:1;stroke:#66951f;stroke-opacity:1"
         transform="matrix(0.80933262,0,0,0.80933262,275.9382,502.83335)"
         id="g279">
        <path
           style="fill:#66951f;fill-opacity:1;stroke:#66951f;stroke-width:5;stroke-opacity:1"
           inkscape:connector-curvature="0"
           d="m 99.727,123.433 c 8.277,0 21.771,3.561 21.771,12.334 v 4.802 h -5.463 v -3.228 c 0,-5.464 -9.437,-8.444 -16.143,-8.444 -12.914,0 -22.847,10.099 -22.847,24.172 0,13.907 9.851,25.083 23.096,25.083 12.002,0 19.039,-8.196 19.039,-8.196 l 3.312,4.222 c 0,0 -8.03,9.437 -22.433,9.437 -17.053,0 -29.056,-13.576 -29.056,-30.546 -0.001,-16.805 12.333,-29.636 28.724,-29.636 z"
           id="path269" />
        <path
           style="fill:#66951f;fill-opacity:1;stroke:#66951f;stroke-width:5;stroke-opacity:1"
           inkscape:connector-curvature="0"
           d="m 182.596,177.489 h 1.076 c 1.49,0 2.4,-0.25 2.98,-1.822 l 19.04,-51.241 h 6.208 l 19.04,51.241 c 0.58,1.572 1.408,1.822 2.981,1.822 h 0.993 v 5.132 h -2.649 c -4.139,0 -5.381,-0.828 -6.871,-4.801 l -5.049,-13.741 h -23.096 l -5.133,13.741 c -1.49,3.974 -2.649,4.801 -6.788,4.801 h -2.732 z m 36.175,-18.461 -7.699,-20.778 c -0.993,-2.732 -2.235,-7.533 -2.235,-7.533 h -0.165 c 0,0 -1.242,4.801 -2.236,7.533 l -7.615,20.778 z"
           id="path271" />
        <path
           style="fill:#66951f;fill-opacity:1;stroke:#66951f;stroke-width:5;stroke-opacity:1"
           inkscape:connector-curvature="0"
           d="m 301.145,131.38 c 0,-1.242 -0.662,-1.82 -1.82,-1.82 h -3.56 v -5.133 h 6.126 c 3.56,0 5.049,1.49 5.049,5.049 v 46.192 c 0,1.242 0.663,1.822 1.822,1.822 h 19.288 c 1.158,0 1.82,-0.58 1.82,-1.822 v -3.891 h 5.463 v 5.794 c 0,3.56 -1.489,5.05 -5.048,5.05 h -24.09 c -3.56,0 -5.05,-1.49 -5.05,-5.05 z"
           id="path273" />
        <path
           style="fill:#66951f;fill-opacity:1;stroke:#66951f;stroke-width:5;stroke-opacity:1"
           inkscape:connector-curvature="0"
           d="m 407.441,157.29 -15.562,-25.578 c -1.076,-1.739 -2.151,-2.152 -3.89,-2.152 h -1.325 v -5.133 h 2.234 c 3.975,0 5.465,0.58 7.947,4.636 l 9.852,16.473 c 1.82,3.063 3.561,6.541 3.561,6.541 h 0.165 c 0,0 1.738,-3.478 3.559,-6.541 l 9.852,-16.473 c 2.484,-4.056 3.974,-4.636 7.946,-4.636 h 2.235 v 5.133 h -1.325 c -1.654,0 -2.813,0.414 -3.807,2.152 l -15.646,25.578 v 25.331 h -5.796 z"
           id="path275" />
        <path
           style="fill:#66951f;fill-opacity:1;stroke:#66951f;stroke-width:5;stroke-opacity:1"
           inkscape:connector-curvature="0"
           d="m 510.925,152.241 -12.584,-20.529 c -1.158,-1.905 -2.482,-2.152 -4.14,-2.152 h -1.737 v -5.133 h 3.062 c 4.057,0 5.714,0.745 8.029,4.636 l 7.451,12.5 c 1.737,2.98 3.726,6.622 3.726,6.622 h 0.164 c 0,0 1.739,-3.642 3.561,-6.622 l 7.449,-12.5 c 2.318,-3.891 3.976,-4.636 8.031,-4.636 H 537 v 5.133 h -1.738 c -1.655,0 -2.979,0.248 -4.139,2.152 l -12.666,20.529 18.625,30.38 h -6.622 l -12.086,-20.033 c -1.82,-3.062 -3.725,-6.374 -3.725,-6.374 h -0.166 c 0,0 -1.655,3.477 -3.477,6.457 l -12.002,19.95 h -6.624 z"
           id="path277" />
      </g>
    </g>
  </g>
</svg>
