<?xml version="1.0" encoding="UTF-8" standalone="no"?>
<!-- Created with Inkscape (http://www.inkscape.org/) -->

<svg
   width="128"
   height="128"
   viewBox="0 0 33.866666 33.866666"
   version="1.1"
   id="svg13"
   inkscape:version="1.1.1 (3bf5ae0d25, 2021-09-20)"
   sodipodi:docname="wait-2.svg"
   xmlns:inkscape="http://www.inkscape.org/namespaces/inkscape"
   xmlns:sodipodi="http://sodipodi.sourceforge.net/DTD/sodipodi-0.dtd"
   xmlns="http://www.w3.org/2000/svg"
   xmlns:svg="http://www.w3.org/2000/svg"
   xmlns:rdf="http://www.w3.org/1999/02/22-rdf-syntax-ns#">
  <sodipodi:namedview
     id="namedview15"
     pagecolor="#ffffff"
     bordercolor="#666666"
     borderopacity="1.0"
     inkscape:pageshadow="2"
     inkscape:pageopacity="0.0"
     inkscape:pagecheckerboard="true"
     inkscape:document-units="px"
     showgrid="true"
     units="px"
     gridtolerance="2.1"
     guidetolerance="2.1"
     objecttolerance="5.5"
     inkscape:zoom="4"
     inkscape:cx="74.5"
     inkscape:cy="43.5"
     inkscape:window-width="1551"
     inkscape:window-height="773"
     inkscape:window-x="281"
     inkscape:window-y="43"
     inkscape:window-maximized="0"
     inkscape:current-layer="off">
    <sodipodi:guide
       position="0,33.866666"
       orientation="0,128"
       id="guide17" />
    <sodipodi:guide
       position="33.866666,33.866666"
       orientation="128,0"
       id="guide19" />
    <sodipodi:guide
       position="33.866666,0"
       orientation="0,-128"
       id="guide21" />
    <sodipodi:guide
       position="0,0"
       orientation="-128,0"
       id="guide23" />
    <inkscape:grid
       type="xygrid"
       id="grid25"
       spacingx="2.1166666"
       spacingy="2.1166666"
       empspacing="4"
       empcolor="#3f3fff"
       empopacity="0.41960784" />
  </sodipodi:namedview>
  <defs
     id="defs10" />
  <g
     inkscape:label="Layer 1"
     inkscape:groupmode="layer"
     id="layer1">
    <g
       id="off"
       transform="matrix(1.1870176,0,0,1.1870176,-3.1635024,-3.2677165)">
      <path
         d="M 27.237618,19.644746 V 7.1765636 C 22.083954,5.3955179 16.93029,5.3955179 16.93029,5.3955179 c 0,0 -5.153659,0 -10.3073277,1.7810457 V 19.644746 c 3.4357807,7.283058 10.3073277,9.795755 10.3073277,9.795755 0,0 6.871552,-2.512697 10.307328,-9.795755 z"
         fill="#a6da78"
         id="path55"
         style="fill:#fce94f;fill-opacity:1;stroke:#2e3436;stroke-width:0.79375;stroke-miterlimit:4;stroke-dasharray:none;stroke-opacity:1" />
      <path
         d="M 26.607871,19.499398 26.598045,7.630134 C 21.815629,6.0219436 16.930526,6.0283704 16.930526,6.0283704 c 0,0 -5.572346,0.1857223 -9.6806198,1.5984882 l 0.00328,11.8692634 c 3.2781614,6.843799 9.6773444,9.263446 9.6773444,9.263446 0,0 6.433627,-2.412636 9.677345,-9.26017 z"
         fill="#a6da78"
         id="path1062"
         style="fill:none;fill-opacity:1;stroke:#ffffff;stroke-width:0.460375;stroke-miterlimit:4;stroke-dasharray:none;stroke-opacity:0.27"
         sodipodi:nodetypes="ccccccc" />
      <path
         d="m 15.93802,20.433808 a 0.09950845,0.09950845 0 0 1 -0.03979,-0.0062 C 14.885732,20.18624 14.063544,19.679371 13.432287,18.9088 12.805384,18.13761 12.491309,17.234571 12.491309,16.199062 a 4.2682912,4.2682912 0 0 1 0.312204,-1.604575 4.3354593,4.3354593 0 0 1 0.88936,-1.376947 l -0.730768,-0.731389 a 0.3482796,0.3482796 0 0 1 -0.10759,-0.254989 0.3482796,0.3482796 0 0 1 0.10759,-0.254992 0.3482796,0.3482796 0 0 1 0.254991,-0.107589 h 2.539332 a 0.3482796,0.3482796 0 0 1 0.25499,0.107589 0.3482796,0.3482796 0 0 1 0.108219,0.254992 v 2.539332 a 0.3482796,0.3482796 0 0 1 -0.10759,0.254989 0.3482796,0.3482796 0 0 1 -0.254989,0.108219 0.3482796,0.3482796 0 0 1 -0.254992,-0.108219 l -0.777409,-0.776166 c -0.248773,0.268048 -0.44157,0.572172 -0.578393,0.912369 a 2.828528,2.828528 0 0 0 -0.203374,1.060386 c 0,0.506249 0.122509,0.978295 0.36818,1.416751 a 2.8583806,2.8583806 0 0 0 1.014991,1.054787 c 0.06406,0.04104 0.284844,0.141177 0.662975,0.300392 0.08706,0.02985 0.130602,0.08706 0.130597,0.169785 l 0,1.088375 a 0.16170126,0.16170126 0 0 1 -0.0566,0.124398 0.16170126,0.16170126 0 0 1 -0.124998,0.0572 m 4.535098,0.141789 h -2.539953 a 0.3482796,0.3482796 0 0 1 -0.254992,-0.10822 0.3482796,0.3482796 0 0 1 -0.10759,-0.254989 v -2.539316 a 0.3482796,0.3482796 0 0 1 0.10759,-0.254991 0.3482796,0.3482796 0 0 1 0.254993,-0.10759 0.3482796,0.3482796 0 0 1 0.25499,0.10759 l 0.782386,0.782386 c 0.518061,-0.559738 0.776786,-1.21898 0.776786,-1.978354 0,-0.506871 -0.122511,-0.978914 -0.36818,-1.417995 A 2.8583806,2.8583806 0 0 0 18.364171,13.75053 c -0.06406,-0.04168 -0.285464,-0.141788 -0.662974,-0.300393 -0.08706,-0.0311 -0.130602,-0.08706 -0.130604,-0.170414 l 0,-1.128177 a 0.18906607,0.18906607 0 0 1 0.051,-0.130596 0.18906607,0.18906607 0 0 1 0.130599,-0.05037 h 0.03919 c 1.01312,0.245662 1.833443,0.755642 2.460349,1.529941 0.631255,0.774923 0.946571,1.682316 0.946571,2.721558 0,0.551652 -0.105727,1.088374 -0.317183,1.609551 a 4.3516295,4.3516295 0 0 1 -0.884382,1.388764 l 0.731357,0.737015 a 0.3482796,0.3482796 0 0 1 0.10759,0.25499 0.3482796,0.3482796 0 0 1 -0.10759,0.254991 0.3482796,0.3482796 0 0 1 -0.254989,0.108219"
         id="path6"
         style="fill:#2e3436;stroke-width:0.305106" />
    </g>
  </g>
  <metadata
     id="metadata27">
    <rdf:RDF />
  </metadata>
</svg>
